{

	  "1": {

	    "title": "VIP Executive box",

	    "subtitle": "Your own elite VIP Executive box for you and seven others",

	    "description": "Win an exclusive once in a lifetime Elite VIP box for you to share with 7 friends or family. Relax before the match with a delicious buffet, Tickets located directly outside your VIP Box </p>",

	    "start_date": "06:00:00 2020-11-01",

	    "close_date": "06:00:00 2020-11-30",

	    "draw_date": "06:00:00 2020-11-15",

	    "feature_image": "https://i2-prod.mirror.co.uk/incoming/article4588320.ece/ALTERNATES/s1200/MAIN-Platinum-Experience-corporate-hospitality-at-Man-Citys-Etihad-Stadium.jpg",

	    "thumbnail_image": "https://www.mancity.com/meta/media/qlzpgry0/bank.jpg",

	    "category": "Premier League",

	    "status": "open",

	    "prize_list": [1,2,3],

	    "quiz_id": [1]

	  },

	  "2": {

	    "title": "VIP hospitality package",

	    "subtitle": "Match day VIP hospitality package for 2",

	    "description": "The only way to guarantee your ticket to watch your team play at home at this season is with one of our official matchday experiences. </p>",

	    "start_date": "06:00:00 2020-08-20",

	    "close_date": "06:00:00 2020-09-30",

	    "draw_date": "06:00:00 2020-10-01",

	    "feature_image": "https://cdnmedia.webthethao.vn/uploads/img/files/images/fullsize/2020/02/09/BDQT/Liverpool.jpg",

	    "thumbnail_image": "https://cdnmedia.webthethao.vn/uploads/img/files/images/fullsize/2020/02/09/BDQT/Liverpool.jpg",

	    "category": "Premier League",

	    "status": "open",

	    "prize_list": [4,5,6],

	    "quiz_id": [1]

	  },

	  "3": {

	    "title": "One Season Ticket",

	    "subtitle": "A season ticket could be yours",

	    "description": "Major prize, season ticket, who says you can't watch every game. ",

	    "start_date": "06:00:00 2020-08-20",

	    "close_date": "06:00:00 2020-09-30",

	    "draw_date": "06:00:00 2020-10-01",

	    "feature_image": "https://www.mancity.com/meta/media/qxsfkn11/third-kit-story.jpg",

	    "thumbnail_image": "https://www.mancity.com/meta/media/qxsfkn11/third-kit-story.jpg",

	    "category": "Premier League",

	    "status": "open",

	    "prize_list": [7,8,9],

	    "quiz_id": [1]

	  },

 	  "4": {

	    "title": "Travel abroad to see your team play",

	    "subtitle": "Watch the team play away",

	    "description": "Fantastic opportunity. One person will WIN a trip for two and see there team play abroad, including flights, accommodation and tickets to the game by simply entering the competition. Full Terms and Conditions of the giveaway are below. ",

	    "start_date": "06:00:00 2020-08-20",

	    "close_date": "06:00:00 2020-10-30",

	    "draw_date": "06:00:00 2020-11-01",

	    "feature_image": "https://www.mancity.com/meta/media/qxsfkn11/third-kit-story.jpg",

	    "thumbnail_image": "https://www.mancity.com/meta/media/qxsfkn11/third-kit-story.jpg",

	    "category": "Premier League",

	    "status": "open",

	    "prize_list": [10,11,12],

	    "quiz_id": [1]

	  },

  	  "5": {

	    "title": "Two home game match tickets",

	    "subtitle": "Watch the team play away",

	    "description": "One person will WIN 2 match day tickets, a great opportunity to share the experience with a friend to see there team play live.. Full Terms and Conditions of the giveaway are below.",

	    "start_date": "06:00:00 2020-08-20",

	    "close_date": "06:00:00 2020-10-30",

	    "draw_date": "06:00:00 2020-11-01",

	    "feature_image": "https://www.mancity.com/meta/media/qxsfkn11/third-kit-story.jpg",

	    "thumbnail_image": "https://www.mancity.com/meta/media/qxsfkn11/third-kit-story.jpg",

	    "category": "Premier League",

	    "status": "open",

	    "prize_list": [13,14,15],

	    "quiz_id": [1]

	  },

	  "6": {

	    "title": "Win Game Family tickets",

	    "subtitle": "Watch the team play away with your nearest and dearest",

	    "description": "Wow an opportunity to see YOUR team play a Live match with the family. You could be in a chance to win x2 adult and x2 children tickets to see your favourite team live. What a great experience and moment to share for the whole family. Imagine the stories around the dinner table after winning this one.",

	    "start_date": "06:00:00 2020-08-20",

	    "close_date": "06:00:00 2020-10-30",

	    "draw_date": "06:00:00 2020-11-01",

	    "feature_image": "https://www.mancity.com/meta/media/qxsfkn11/third-kit-story.jpg",

	    "thumbnail_image": "https://www.mancity.com/meta/media/qxsfkn11/third-kit-story.jpg",

	    "category": "Premier League",

	    "status": "open",

	    "prize_list": [16,5,18],

	    "quiz_id": [1]

	  },

 	  "7": {

	    "title": "Meet the Players!",

	    "subtitle": "Meet and talk to a player of your favourite team over zoom",

	    "description": "You, your friends or family can meet and talk to a player from your favourite team. Time to have all your burning questions answered. We'll set up an 1:1 session with you and a player to chat about the game, have a laugh, share stories, talk about the season or get some training tips, what an experience, Enter Now.",

	    "start_date": "06:00:00 2020-08-20",

	    "close_date": "06:00:00 2020-10-30",

	    "draw_date": "06:00:00 2020-11-01",

	    "feature_image": "https://www.mancity.com/meta/media/qxsfkn11/third-kit-story.jpg",

	    "thumbnail_image": "https://www.mancity.com/meta/media/qxsfkn11/third-kit-story.jpg",

	    "category": "Premier League",

	    "status": "open",

	    "prize_list": [19,20,12],

	    "quiz_id": [1]

	  },

          "8": {

	    "title": "Wear the team colours",

	    "subtitle": "Official Full team players Kit",

	    "description": "Wear your team's colours with PRIDE. This is a must-have for all die hard supporters.. 1 Club Home shirt, 1 Club home Shorts, 1 pair of socks, 1 backpack and ball. Enter now and this could be yours! Worth over 150 pounds. But if you miss out, don't worry there is still more prizes up for grabs",

	    "start_date": "06:00:00 2020-08-20",

	    "close_date": "06:00:00 2020-10-30",

	    "draw_date": "06:00:00 2020-11-01",

	    "feature_image": "https://www.mancity.com/meta/media/qxsfkn11/third-kit-story.jpg",

	    "thumbnail_image": "https://www.mancity.com/meta/media/qxsfkn11/third-kit-story.jpg",

	    "category": "Premier League",

	    "status": "open",

	    "prize_list": [22,23,24],

	    "quiz_id": [1]

	  }

	}