{
	"1": {
		"title": "VIP Executive box",
		"image": "https://w7.pngwing.com/pngs/465/699/png-transparent-medal-trophy-icon-award-prizes-element-template-text-orange.png",
		"description": "Win an exclusive once in a lifetime Elite VIP box for you to share with 7 friends or family. Relax before the match with a delicious buffet, Tickets located directly outside your VIP Box. Champagne reception upon arrival Complimentary selected wines, beers and soft drinks throughout the entire matchday Luxury pre-match three-course buffet Half-time and post-match refreshments Complimentary official match day programme for all guests Exclusive gift per guest Dedicated waiter or waitress throughout the matchday Appearances by former players",
		"quantity": "1",
		"date": "05:00:00 2020-12-17",
		"value": "100",
		"terms": "",
		"tandc": "1. Entry to any Competition may only be made in accordance with the specified instructions for entry published in print or online in conjunction with the Competition. 2. Unless otherwise stated, entry to all Competitions is restricted to entrants of 18 years of age or over.  First Prize terms and conditions: . There will be a certain dress code to enter the executive box. 2. Prize will be 8 tickets to the Executive VIP box 5. Entrants may make up to 5 entries. 3. Unless specifically stated otherwise, prizes are not transferable and no cash alternative to prizes will be offered. 4. This ticket is for the use of the match that you entered to see and may not be used for any other matches. 5. All people entering the Executive Box must follow the rules set out by the club and act in a responsible manner."
	},

	"2": {
		"title": "2 Match Day Game Tickets",
		"image": "https://w7.pngwing.com/pngs/465/699/png-transparent-medal-trophy-icon-award-prizes-element-template-text-orange.png",
		"description": "One person will WIN 2 match day tickets, a great opportunity to share the experience with a friend to see there team play live. Full Terms and Conditions of the giveaway are below.",
		"quantity": "1",
		"date": "05:00:00 2020-12-17",
		"value": "100",
		"terms": "",
		"tandc": "Second Prize terms and conditions: 1. The prize will be 2 tickets for the selected match day you have entered 2. Entrants may make up to 5 entries. 3. Unless specifically stated otherwise, prizes are not transferable and no cash alternative to prizes will be offered. 4. This ticket is for the use of the match that you entered to see and may not be used for any other matches. 5. All people entering must follow the rules set out by the club and act in a responsible manner."
	},

	"3": {
		"title": "Meet and talk to a player of your favourite team over zoom",
		"image": "https://w7.pngwing.com/pngs/465/699/png-transparent-medal-trophy-icon-award-prizes-element-template-text-orange.png",
		"description": "You, your friends or family can meet and talk to a player from your favourite team. Time to have all your burning questions answered. We'll set up an 1:1 session with you and a player to chat about the game, have a laugh, share stories, talk about the season or get some training tips, what an experience, Enter Now. ",
		"quantity": "1",
		"date": "05:00:00 2020-12-17",
		"value": "100",
		"terms": "",
		"tandc": "Third Prize terms and conditions: 1. Prize will be one 30 mins meet and greet with a player from your chosen team. 2. Entrants may make up to 5 entries.  3. Unless specifically stated otherwise, prizes are not transferable and no cash alternative to prize will be offered. 4. All people entering the competition must follow the rules set out by the club and act in a responsible manner."
	},

	"4": {
		"title": "Match day VIP hospitality package for 2",
		"image": "https://w7.pngwing.com/pngs/465/699/png-transparent-medal-trophy-icon-award-prizes-element-template-text-orange.png",
		"description": "The only way to guarantee your ticket to watch your team play at home at this season is with one of our official matchday experiences. Every hospitality package includes an official ticket on either Club Level or Box Level, fine dining and a complimentary bar. Facilities open up to two and a half hours before kick-off and stay open up to two hours post-match, allowing you ample time to enjoy the hospitality experience before and after the football. Premium match seats located in a shared Executive Box Private table pre-match in one of our restaurants; Champagne upon arrival; Pre-match three-course buffet; Half-time and post-match refreshments; Complimentary selected wines, beers and soft drinks throughout the entire matchday; Complimentary official matchday programme and team sheet for all guests; Appearances from club Legends; Exclusive gift per guest",
		"quantity": "1",
		"date": "05:00:00 2020-07-17",
		"value": "100",
		"terms": "",
		"tandc": " 1. Entry to any Competition may only be made in accordance with the specified instructions for entry  published in print or online in conjunction with the Competition. 2. Unless otherwise stated, entry to all Competitions is restricted to entrants of 18 years of age or over. First Prize Terms and Conditions: 1. There will be a certain dress code to enter.  2. Prize will be 2 tickets for a match day hospitality package 3. Entrants may make up to 5 entries. 4. Unless specifically stated otherwise, prizes are not transferable and no cash alternative to prizes will be offered. 5. This ticket is for the use of the match that you entered to see and may not be used for any other matches 6. All people entering the competition must follow the rules set out by the club and act in a responsible manner"
	},
	"5": {
		"title": "Official Full team players Kit",
		"image": "https://w7.pngwing.com/pngs/465/699/png-transparent-medal-trophy-icon-award-prizes-element-template-text-orange.png",
		"description": "Wear your teams colours with PRIDE. This is a must-have for all die hard supporters. 1 x Club home shirt, 1 x Club home shorts, 1 x pair of socks, 1 x backpack and ball. Enter now and this could be yours! Worth over 150 pounds. But if you miss out, don't worry there is still more prizes up for grabs",
		"quantity": "10",
		"date": "05:00:00 2020-07-17",
		"value": "500",
		"terms": "",
		"tandc": "Second prize terms and conditions:  1. Prize will 1 shirt, 1 shorts, 1 pair socks, a backpack and ball.  2. Entrants may make up to 5 entries.  3. Unless specifically stated otherwise, prizes are not transferable and no cash alternative to prizes will be offered.  4. We must have contact details of entrant so we can contact to get clothing sizes and an address to send the competition prize for the winner."
	},
	"6": {
		"title": "Authentic team Home shirt",
		"image": "https://w7.pngwing.com/pngs/465/699/png-transparent-medal-trophy-icon-award-prizes-element-template-text-orange.png",
		"description": "Wear the clubs 20/21 Home Shirt to cheer on your heroes wherever you are. Created for the fans, the Clubs 20/21 Authentic Home Shirt will maximise your training effectiveness during every workout or football session. A version of the shirt worn by the pros on the pitch. Built to withstand the toughest of training sessions the fabric features moisture-absorbent adidas HEAT.RDY technology allowing air to flow freely so you stay cool, dry and comfortable right to the final whistle! The precision fit and heat-transfer details make the shirt ultra-lightweight and wind-resistant so won't slow you down when you need to up your game. With breathable technical fibres this shirt will work with your body to enhance your performance when you need it most. Wear your shirt with pride and show your support. Breathable, air-cooling HEAT.RDY; Heat-transfer club badge to show your support ; Heat-transfer adidas logo, 3-stripes and sponsor name; Slim fit - curved dove-tail hemline; Design emblem on upper back featuring the iconic cannon within the 1930s club badge; Ribbed crew-neck with high sleeve cuffs.",
		"quantity": "20",
		"date": "05:00:00 2020-07-17",
		"value": "30",
		"terms": "",
		"tandc": "Third prize terms and conditions: 1. Prize will be 1 Authentic Home shirt 2. Unless specifically stated otherwise, prizes are not transferable and no cash alternative to prizes will be offered. 3. We must have contact details of entrant so we can contact to get clothing sizes and an address to send the competition prize for the winner"
	},

	"7": {
		"title": "One Season Ticket",
		"image": "https://w7.pngwing.com/pngs/465/699/png-transparent-medal-trophy-icon-award-prizes-element-template-text-orange.png",
		"description": "Major prize, season ticket, who says you can't watch every game.",
		"quantity": "1",
		"date": "05:00:00 2020-07-17",
		"value": "100",
		"terms": "",
		"tandc": "1. Entry to any Competition may only be made in accordance with the specified instructions for entry published in print or online in conjunction with the Competition. 2. Unless otherwise stated, entry to all Competitions is restricted to entrants of 18 years of age or over. First Prize Terms and Conditions: 1. Prize will be 1 season ticket 5. Entrants may make up to 5 entries.  2. Unless specifically stated otherwise, prizes are not transferable and no cash alternative to prizes will be offered. 3. All people entering the competition must follow the rules set out by the club and act in a responsible manner"
	},

	"8": {
		"title": "Win two match day tickets",
		"image": "https://w7.pngwing.com/pngs/465/699/png-transparent-medal-trophy-icon-award-prizes-element-template-text-orange.png",
		"description": "One person will WIN 2 match day tickets, a great opportunity to share the experience with a friend to see there team play live. Full Terms and Conditions of the giveaway are below.",
		"quantity": "1",
		"date": "05:00:00 2020-07-17",
		"value": "100",
		"terms": "",
		"tandc": "Second prize terms and conditions: 1. Prize will be 2 tickets for the selected match day you have entered.  2. Entrants may make up to 5 entries.  3. Unless specifically stated otherwise, prizes are not transferable and no cash alternative to prizes will be offered.  4. This ticket is for the use of the match that you entered to see and may not be used for any other matches 8. All people entering must follow the rules set out by the club and act in a responsible manner"
	},
	"9": {
		"title": "Authentic Match Worn Jersey",
		"image": "https://w7.pngwing.com/pngs/465/699/png-transparent-medal-trophy-icon-award-prizes-element-template-text-orange.png",
		"description": "Here is your chance to win a match worn jersey by one of your very own heroes.",
		"quantity": "1",
		"date": "05:00:00 2020-07-17",
		"value": "100",
		"terms": "",
		"tandc": "Third prize terms and conditions: 5. Prize will be 1 Authentic Match worn shirt. 6. Entrants may make up to 5 entries. 7. Unless specifically stated otherwise, prizes are not transferable and no cash alternative to prizes will be offered. 8. We must have contact details of entrant so we can contact to get clothing sizes and an address to sent the competition prize for the winner."
	},
	"10": {
		"title": "Travel Abroad to see your team play",
		"image": "https://w7.pngwing.com/pngs/465/699/png-transparent-medal-trophy-icon-award-prizes-element-template-text-orange.png",
		"description": "Fantastic opportunity. One person will WIN a trip for two and see there team play Abroad, including flights, accommodation and tickets to the game by simply entering the competition. Full Terms and Conditions of the giveaway are below.",
		"quantity": "1",
		"date": "05:00:00 2020-07-17",
		"value": "100",
		"terms": "",
		"tandc": "1. Entry to any Competition may only be made in accordance with the specified instructions for entry published in print or online in conjunction with the Competition. 2. Unless otherwise stated, entry to all Competitions is restricted to entrants of 18 years of age or over. 3. Entrants may make up to 5 entries. First prize terms and conditions: 1. Prize will be 2 tickets, 2 return flights and accommodation. 2. Unless specifically stated otherwise, prizes are not transferable and no cash alternative to prizes will be offered. 3. This ticket is for the use of the match that you entered to see and may not be used for any other matches. 4. All people entering this competition must follow the rules set out by the club and act in a responsible manner."
	},
	"11": {
		"title": "Official Training Kit",
		"image": "https://w7.pngwing.com/pngs/465/699/png-transparent-medal-trophy-icon-award-prizes-element-template-text-orange.png",
		"description": "Wear your teams colours with PRIDE. This is a must-have for all die hard supporters. 1 Club Home shirt, 1 Club home Shorts, 1 pair of socks, 1 backpack and ball. Enter now and this could be yours! Worth over 150 pounds. But if you miss out, don't worry there is still more prizes up for grabs.",
		"quantity": "1",
		"date": "05:00:00 2020-07-17",
		"value": "100",
		"terms": "",
		"tandc": "Second prize terms and conditions: 1. Prize will be 1 shirt, 1 shorts, 1 pair socks, a backpack and ball. 2. Entrants may make up to 5 entries. 3. Unless specifically stated otherwise, prizes are not transferable and no cash alternative to prizes will be offered. 4. We must have contact details of entrant so we can contact to get clothing sizes and an address to send the competition prize for the winner."
	},
	"12": {
		"title": "Match Day Tour",
		"image": "https://w7.pngwing.com/pngs/465/699/png-transparent-medal-trophy-icon-award-prizes-element-template-text-orange.png",
		"description": "Your tour will include access to the Directors Entrance, Directors Box, Diamond Club, Players Entrance, Home and Away Dressing Room, Head Coach's Office, Players Tunnel, Pitchside and Home Dugout, Flash Interview Rooms, Press Conference Room and Media Lounge, A 90 minute behind-the-scenes guided tour with your chosen Legend as your Host, Q&A and photo opportunity with your Legend, Rewalk all tour areas at your leisure after your tour has concluded, Signed photograph of your Legend, Free entry to the Clubs Museum, Free club branded lanyard, Free personalised tour certificate",
		"quantity": "1",
		"date": "05:00:00 2020-07-17",
		"value": "100",
		"terms": "",
		"tandc": "Third prize terms and conditions: 1. Prize will be 1 Match day Tour. 2. Entrants may make up to 5 entries. 3. Unless specifically stated otherwise, prizes are not transferable and no cash alternative to prizes will be offered. 4. We must have contact details and address of entrant to send the prize for the winner."
	},

	"13": {
		"title": "Two home game match tickets",
		"image": "https://w7.pngwing.com/pngs/465/699/png-transparent-medal-trophy-icon-award-prizes-element-template-text-orange.png",
		"description": "One person will WIN 2 match day tickets, a great opportunity to share the experience with a friend to see there team play live. Full Terms and Conditions of the giveaway are on the next tab.",
		"quantity": "1",
		"date": "05:00:00 2020-07-17",
		"value": "100",
		"terms": "",
		"tandc": "1. Entry to any Competition may only be made in accordance with the specified instructions for entry published in print or online in conjunction with the Competition. 2. Unless otherwise stated, entry to all Competitions is restricted to entrants of 18 years of age or over. 3.Entrants may make up to 5 entries. First Prize terms and conditions: 1. Prize will be 2 tickets for the selected match day you have entered. 2. Unless specifically stated otherwise, prizes are not transferable and no cash alternative to prizes will be offered. 3. This ticket is for the use of the match that you entered to see and may not be used for any other matches 4. All people entering must follow the rules set out by the club and act in a responsible manner."
	},

	"14": {
		"title": "Signature Collection Framed Print",
		"image": "https://w7.pngwing.com/pngs/465/699/png-transparent-medal-trophy-icon-award-prizes-element-template-text-orange.png",
		"description": "Picking up the ball inside his own half in a sweeping counter-attack, he sprinted the length of the pitch leaving opposition players in his wake, to finish neatly past the goalkeeper. The famous knee-slide celebration in front of the Tottenham fans is now immortalised as a statue. The Print is personally signed is a stunning piece of memorabilia that celebrates the record-breaking career of one of the Premiership's greatest talents. Personally hand-signed, Certificate of authenticity, Black coated frame measuring 588mm x 486mm.",
		"quantity": "1",
		"date": "05:00:00 2020-07-17",
		"value": "100",
		"terms": "",
		"tandc": "Second prize terms and conditions: 1. Prize will be 1 Signature Collection Framed Print 2. Entrants may make up to 5 entries. 3. Unless specifically stated otherwise, prizes are not transferable and no cash alternative to prizes will be offered. 4. We must have contact details and address of entrant to send the prize for the winner."
	},

	"15": {
		"title": "Meet and talk to a player of your favourite team over zoom",
		"image": "https://w7.pngwing.com/pngs/465/699/png-transparent-medal-trophy-icon-award-prizes-element-template-text-orange.png",
		"description": "You, your friends or family can meet and talk to a player from your favourite team. Time to have all your burning questions answered. We'll set up an 1:1 session with you and a player to chat about the game, have a laugh, share stories, talk about the season or get some training tips, what an experience, Enter Now.",
		"quantity": "1",
		"date": "05:00:00 2020-07-17",
		"value": "100",
		"terms": "",
		"tandc": "Third prize terms and conditions: 1. Prize will be one 30 mins meet and greet with a player from your chosen team. 2. Entrants may make up to 5 entries. 3. Unless specifically stated otherwise, prizes are not transferable and no cash alternative to prizes will be offered. 4. All people entering the competition must follow the rules set out by the club and act in a responsible manner."
	},

	"16": {
		"title": "Win Family Game Tickets",
		"image": "https://w7.pngwing.com/pngs/465/699/png-transparent-medal-trophy-icon-award-prizes-element-template-text-orange.png",
		"description": "Wow an opportunity to see YOUR team play a Live match with the family. You could be in a chance to win x2 adult and x2 children tickets to see your favourite team live. What a great experience and moment to share for the whole family. Imagine the stories around the dinner table after winning this one.",
		"quantity": "1",
		"date": "05:00:00 2020-07-17",
		"value": "100",
		"terms": "",
		"tandc": "1. Entry to any Competition may only be made in accordance with the specified instructions for entry published in print or online in conjunction with the Competition.2. Unless otherwise stated, entry to all Competitions is restricted to entrants of 18 years of age or over. First prize terms and conditions: 1. Prize will be x2 adult and x2 JG tickets 2. Entrants may make up to 5 entries. 3. Unless specifically stated otherwise, prizes are not transferable and no cash alternative to prizes will be offered. 4. This ticket is for the use of the match that you entered to see and may not be used for any other matches 5. All people entering the competition must follow the rules set out by the club and act in a responsible manner."
	},

	"17": {
		"title": "Official Full team players Kit",
		"image": "https://w7.pngwing.com/pngs/465/699/png-transparent-medal-trophy-icon-award-prizes-element-template-text-orange.png",
		"description": "Wow an opportunity to see YOUR team play a Live match with the family. You could be in a chance to win x2 adult and x2 children tickets to see your favourite team live. What a great experience and moment to share for the whole family. Imagine the stories around the dinner table after winning this one.",
		"quantity": "1",
		"date": "05:00:00 2020-07-17",
		"value": "100",
		"terms": "",
		"tandc": "1. Entry to any Competition may only be made in accordance with the specified instructions for entry published in print or online in conjunction with the Competition.2. Unless otherwise stated, entry to all Competitions is restricted to entrants of 18 years of age or over. First prize terms and conditions: 1. Prize will be x2 adult and x2 JG tickets 2. Entrants may make up to 5 entries. 3. Unless specifically stated otherwise, prizes are not transferable and no cash alternative to prizes will be offered. 4. This ticket is for the use of the match that you entered to see and may not be used for any other matches7. All people entering the competition must follow the rules set out by the club and act in a responsible manner."
	},

	"18": {
		"title": "£30 team online store voucher",
		"image": "https://w7.pngwing.com/pngs/465/699/png-transparent-medal-trophy-icon-award-prizes-element-template-text-orange.png",
		"description": "Win a £30 voucher for our online store and buy yourself some gifts and accessories from your favourite team ",
		"quantity": "1",
		"date": "05:00:00 2020-07-17",
		"value": "100",
		"terms": "",
		"tandc": "1. Entry to any Competition may only be made in accordance with the specified instructions for entry published in print or online in conjunction with the Competition.2. Unless otherwise stated, entry to all Competitions is restricted to entrants of 18 years of age or over. Third prize terms and conditions: 1. Prize will be 1  £30 teamdirect.com voucher 2. Entrants may make up to 5 entries. 3. Unless specifically stated otherwise, prizes are not transferable and no cash alternative to prizes will be offered. 4. We must have contact details and address of entrant to send the prize for the winner"
	},

	"19": {
		"title": "Meet and talk to a player of your favourite team over zoom",
		"image": "https://w7.pngwing.com/pngs/465/699/png-transparent-medal-trophy-icon-award-prizes-element-template-text-orange.png",
		"description": "You, your friends or family can meet and talk to a player from your favourite team. Time to have all your burning questions answered. We'll set up an 1:1 session with you and a player to chat about the game, have a laugh, share stories, talk about the season or get some training tips, what an experience, Enter Now.",
		"quantity": "1",
		"date": "05:00:00 2020-07-17",
		"value": "100",
		"terms": "",
		"tandc": "First prize terms and conditions: 1. Prize will be one 30 mins meet and greet with a player from your chosen team. 2. Entrants may make up to 5 entries. 3. Unless specifically stated otherwise, prizes are not transferable and no cash alternative to prizes will be offered. 4. All people entering the competition must follow the rules set out by the club and act in a responsible manner."
	},

	"20": {
		"title": "Cup Final Celebration Shirt",
		"image": "https://w7.pngwing.com/pngs/465/699/png-transparent-medal-trophy-icon-award-prizes-element-template-text-orange.png",
		"description": "Own a special piece of memorabilia with this limited edition FA Cup Winners commemorative shirt. The shirt celebrates the clubs record-breaking 14th FA Cup Final win with the number 14 printed on the back and 2020 FA Cup Final front patch. A striking shirt to commemorate a spectacular achievement.",
		"quantity": "1",
		"date": "05:00:00 2020-07-17",
		"value": "100",
		"terms": "",
		"tandc": "1. Entry to any Competition may only be made in accordance with the specified instructions for entry published in print or online in conjunction with the Competition. 2. Unless otherwise stated, entry to all Competitions is restricted to entrants of 18 years of age or over. Second prize terms and conditions: 1. Prize will be 1 Cup Final Celebration shirt 2. Entrants may make up to 5 entries. 5. Unless specifically stated otherwise, prizes are not transferable and no cash alternative to prizes will be offered. 3. We must have contact details of entrant so we can contact to get clothing sizes and an address to send the competition prize for the winner"
	},

	"21": {
		"title": "Cup Final Celebration Shirt",
		"image": "https://w7.pngwing.com/pngs/465/699/png-transparent-medal-trophy-icon-award-prizes-element-template-text-orange.png",
		"description": "Own a special piece of memorabilia with this limited edition FA Cup Winners commemorative shirt. The shirt celebrates the clubs record-breaking 14th FA Cup Final win with the number 14 printed on the back and 2020 FA Cup Final front patch. A striking shirt to commemorate a spectacular achievement.",
		"quantity": "1",
		"date": "05:00:00 2020-07-17",
		"value": "100",
		"terms": "",
		"tandc": "1. Entry to any Competition may only be made in accordance with the specified instructions for entry published in print or online in conjunction with the Competition. 2. Unless otherwise stated, entry to all Competitions is restricted to entrants of 18 years of age or over. Second prize terms and conditions: 1. Prize will be 1 Cup Final Celebration shirt 2. Entrants may make up to 5 entries. 5. Unless specifically stated otherwise, prizes are not transferable and no cash alternative to prizes will be offered. 3. We must have contact details of entrant so we can contact to get clothing sizes and an address to send the competition prize for the winner"
	},


	"22": {
		"title": "Official Full team players Kit",
		"image": "https://w7.pngwing.com/pngs/465/699/png-transparent-medal-trophy-icon-award-prizes-element-template-text-orange.png",
		"description": "Wear your team's colours with PRIDE. This is a must-have for all die hard supporters.. 1 Club Home shirt, 1 Club home Shorts, 1 pair of socks, 1 backpack and ball. Enter now and this could be yours! Worth over 150 pounds. But if you miss out, don't worry there is still more prizes up for grabs!",
		"quantity": "1",
		"date": "05:00:00 2020-07-17",
		"value": "100",
		"terms": "",
		"tandc": "1. Entry to any Competition may only be made in accordance with the specified instructions for entry published in print or online in conjunction with the Competition.2. Unless otherwise stated, entry to all Competitions is restricted to entrants of 18 years of age or over. First prize terms and conditions: 1. Prize will be x2 adult and x2 JG tickets 2. Entrants may make up to 5 entries. 3. Unless specifically stated otherwise, prizes are not transferable and no cash alternative to prizes will be offered. 4. This ticket is for the use of the match that you entered to see and may not be used for any other matches7. All people entering the competition must follow the rules set out by the club and act in a responsible manner."
	},


	"23": {
		"title": "Win a full away kit!",
		"image": "https://w7.pngwing.com/pngs/465/699/png-transparent-medal-trophy-icon-award-prizes-element-template-text-orange.png",
		"description": "Yellow with navy sleeves and cannon crest, this is a must-have retro shirt for any diehard fan - a wonderful memory of glorious past, a glory that continues to this very day.. Enter now and you could be yours! Worth up to £150. But if you miss out, don't worry there is still more prizes up for grabs",
		"quantity": "1",
		"date": "05:00:00 2020-07-17",
		"value": "100",
		"terms": "",
		"tandc": "1. Entry to any Competition may only be made in accordance with the specified instructions for entry published in print or online in conjunction with the Competition. 2. Unless otherwise stated, entry to all Competitions is restricted to entrants of 18 years of age or over. Second Prize terms and conditions: 1. Prize will be 1 shirt, 1 shorts, 1 pair socks, a backpack and ball. 2. Entrants may make up to 5 entries. 3. Unless specifically stated otherwise, prizes are not transferable and no cash alternative to prizes will be offered. 4. We must have contact details of entrant so we can contact to get clothing sizes and an address to send the competition prize for the winner"
	},


	"24": {
		"title": "Win a yearly membership",
		"image": "https://w7.pngwing.com/pngs/465/699/png-transparent-medal-trophy-icon-award-prizes-element-template-text-orange.png",
		"description": "Full of fantastic benefits, full access to our online video service Player, an exclusive Membership pack, opportunity to join virtual events and win signed merchandise and access to club partner offers with Membership Rewards.",
		"quantity": "1",
		"date": "05:00:00 2020-07-17",
		"value": "100",
		"terms": "",
		"tandc": "1. Entry to any Competition may only be made in accordance with the specified instructions for entry published in print or online in conjunction with the Competition. 2. Unless otherwise stated, entry to all Competitions is restricted to entrants of 18 years of age or over. Third prize terms and conditions: 1. Prize will be 1 yearly Membership 2. Entrants may make up to 5 entries. 3. Unless specifically stated otherwise, prizes are not transferable and no cash alternative to prizes will be offered. 4. We must have contact details and address of entrant to send the prize for the winner"
	}
}
